{
  "content": [
      {
          "id": 215,
          "nom": "FESTIVAL DIVERSCENES",
          "dateDebut": 1704582000000,
          "siteWeb": "http://diverscene.jimdo.com",
          "tarifPass": 21.0,
          "dateFin": 1706914800000,
          "nombrePass": 86,
          "codePostalCommune": "53810",
          "nomCommune": "Changé",
          "nomSousDomaine": "Musiques traditionnelles et du monde",
          "nomDomainePrincipal": "Musiques actuelles",
          "nomOrganisateur": "Bernard Mathéo",
          "offreCovoiturages": [],
          "nombrePlaceOffreCovoiturage": 25
      },
      {
          "id": 101,
          "nom": "Festival Circonova",
          "dateDebut": 1704841200000,
          "siteWeb": "www.theatre-cornouaille.fr/",
          "tarifPass": 17.0,
          "dateFin": 1707346800000,
          "nombrePass": 40,
          "codePostalCommune": "29000",
          "nomCommune": "Quimper",
          "nomSousDomaine": "Cirque",
          "nomDomainePrincipal": "Cirque et Arts de la rue",
          "nomOrganisateur": "Lefèvre Evan",
          "offreCovoiturages": [],
          "nombrePlaceOffreCovoiturage": 40
      },
      {
          "id": 1353,
          "nom": "FESTIVAL LES VAGAMONDES",
          "dateDebut": 1704841200000,
          "siteWeb": "www.lafilature.org",
          "tarifPass": 24.0,
          "dateFin": 1705705200000,
          "nombrePass": 72,
          "codePostalCommune": "68100",
          "nomCommune": "Mulhouse",
          "nomSousDomaine": "Transdisciplinaire",
          "nomDomainePrincipal": "Transdisciplinaire",
          "nomOrganisateur": "Huet Maxime",
          "offreCovoiturages": [],
          "nombrePlaceOffreCovoiturage": 36
      },
      {
          "id": 134,
          "nom": "Paris des femmes",
          "dateDebut": 1704927600000,
          "siteWeb": "www.parisdesfemmes.com",
          "tarifPass": 28.0,
          "dateFin": 1705100400000,
          "nombrePass": 60,
          "codePostalCommune": "75001",
          "nomCommune": "Paris 01",
          "nomSousDomaine": "Transdisciplinaire",
          "nomDomainePrincipal": "Transdisciplinaire",
          "nomOrganisateur": "Louis Sacha",
          "offreCovoiturages": [],
          "nombrePlaceOffreCovoiturage": 19
      },
      {
          "id": 1462,
          "nom": "FESTIVAL A PARTIR DU REEL",
          "dateDebut": 1704927600000,
          "siteWeb": "https://www.larenaissance-mondeville.fr",
          "tarifPass": 24.0,
          "dateFin": 1707346800000,
          "nombrePass": 75,
          "codePostalCommune": "14120",
          "nomCommune": "Mondeville",
          "nomSousDomaine": "Théâtre",
          "nomDomainePrincipal": "Théâtre",
          "nomOrganisateur": "Perrot Maxime",
          "offreCovoiturages": [],
          "nombrePlaceOffreCovoiturage": 36
      },
      {
          "id": 361,
          "nom": "Festival international du cirque de Massy",
          "dateDebut": 1704927600000,
          "siteWeb": "https://www.cirque-massy.com/",
          "tarifPass": 23.0,
          "dateFin": 1705186800000,
          "nombrePass": 98,
          "codePostalCommune": "91300",
          "nomCommune": "Massy",
          "nomSousDomaine": "Cirque",
          "nomDomainePrincipal": "Cirque et Arts de la rue",
          "nomOrganisateur": "Perrot Justine",
          "offreCovoiturages": [],
          "nombrePlaceOffreCovoiturage": 27
      },
      {
          "id": 250,
          "nom": "GAROSNOW",
          "dateDebut": 1705014000000,
          "siteWeb": "www.garosnow.com",
          "tarifPass": 21.0,
          "dateFin": 1705100400000,
          "nombrePass": 47,
          "codePostalCommune": "66210",
          "nomCommune": "Les Angles",
          "nomSousDomaine": "Musiques amplifiées ou électroniques",
          "nomDomainePrincipal": "Musiques actuelles",
          "nomOrganisateur": "Olivier Lilou",
          "offreCovoiturages": [],
          "nombrePlaceOffreCovoiturage": 33
      },
      {
          "id": 900,
          "nom": "Biennale Internationale des Arts du Cirque Provence Alpes Côte d’Azur (BIAC)",
          "dateDebut": 1705014000000,
          "siteWeb": "http://www.biennale-cirque.com/fr/",
          "tarifPass": 33.0,
          "dateFin": 1707606000000,
          "nombrePass": 45,
          "codePostalCommune": "13001",
          "nomCommune": "Marseille 01",
          "nomSousDomaine": "Cirque",
          "nomDomainePrincipal": "Cirque et Arts de la rue",
          "nomOrganisateur": "Muller Elisa",
          "offreCovoiturages": [],
          "nombrePlaceOffreCovoiturage": 17
      },
      {
          "id": 1042,
          "nom": "LA FONTAINE DU RIRE",
          "dateDebut": 1705014000000,
          "siteWeb": "http://www.la-tete-de-mule.fr/",
          "tarifPass": 12.0,
          "dateFin": 1712959200000,
          "nombrePass": 42,
          "codePostalCommune": "21000",
          "nomCommune": "Dijon",
          "nomSousDomaine": "Humour",
          "nomDomainePrincipal": "Divers Spectacle vivant",
          "nomOrganisateur": "Joly Valentin",
          "offreCovoiturages": [],
          "nombrePlaceOffreCovoiturage": 13
      },
      {
          "id": 501,
          "nom": "POLY'SONS DE MONTBRISON",
          "dateDebut": 1705014000000,
          "siteWeb": "http://www.theatredespenitents.fr/",
          "tarifPass": 25.0,
          "dateFin": 1708470000000,
          "nombrePass": 42,
          "codePostalCommune": "42600",
          "nomCommune": "Montbrison",
          "nomSousDomaine": "Chanson",
          "nomDomainePrincipal": "Musiques actuelles",
          "nomOrganisateur": "Rousseau Evan",
          "offreCovoiturages": [],
          "nombrePlaceOffreCovoiturage": 30
      }
  ],
  "pageable": {
      "pageNumber": 0,
      "pageSize": 10,
      "sort": {
          "empty": false,
          "sorted": true,
          "unsorted": false
      },
      "offset": 0,
      "paged": true,
      "unpaged": false
  },
  "last": false,
  "totalPages": 263,
  "totalElements": 2627,
  "first": true,
  "size": 10,
  "number": 0,
  "sort": {
      "empty": false,
      "sorted": true,
      "unsorted": false
  },
  "numberOfElements": 10,
  "empty": false
}
